[gd_scene load_steps=5 format=2]

[ext_resource path="res://fonts/usuzi.ttf" type="DynamicFontData" id=1]
[ext_resource path="res://scripts/bubble.gd" type="Script" id=2]
[ext_resource path="res://assets/clock_panel.png" type="Texture" id=3]

[sub_resource type="DynamicFont" id=1]
size = 21
font_data = ExtResource( 1 )

[node name="Bubble" type="Node2D"]
position = Vector2( 203, 83 )
script = ExtResource( 2 )

[node name="VBoxContainer" type="VBoxContainer" parent="."]
anchor_right = 1.0
anchor_bottom = 1.0
margin_left = -152.0
margin_top = -60.0
margin_right = -88.0
margin_bottom = -23.0
grow_horizontal = 2
grow_vertical = 2

[node name="Label" type="Label" parent="VBoxContainer"]
margin_right = 64.0
margin_bottom = 20.0
grow_horizontal = 2
grow_vertical = 2
custom_colors/font_color = Color( 1, 1, 1, 1 )
custom_fonts/font = SubResource( 1 )
text = "TEST"

[node name="NinePatchRect" type="NinePatchRect" parent="VBoxContainer/Label"]
show_behind_parent = true
anchor_right = 1.0
anchor_bottom = 1.0
margin_left = -41.0
margin_top = -24.0
margin_right = 42.0
margin_bottom = 27.0
grow_horizontal = 2
grow_vertical = 2
texture = ExtResource( 3 )
region_rect = Rect2( -2.5, -1, 202.5, 73.5 )
patch_margin_left = 68
patch_margin_top = 21
patch_margin_right = 79
patch_margin_bottom = 25

[node name="Timer" type="Timer" parent="."]

[node name="EventTimer" type="Timer" parent="."]

[connection signal="timeout" from="Timer" to="." method="_on_Timer_timeout"]
[connection signal="timeout" from="EventTimer" to="." method="_on_EventTimer_timeout"]
