; Engine configuration file.
; It's best edited using the editor UI and not directly,
; since the parameters that go here are not all obvious.
;
; Format:
;   [section] ; section goes between []
;   param=value ; assign values to parameters

config_version=4

_global_script_classes=[ {
"base": "Reference",
"class": "parametrics",
"language": "GDScript",
"path": "res://scripts/common/parametrics.gd"
} ]
_global_script_class_icons={
"parametrics": ""
}

[application]

config/name="inner_space2"
run/main_scene="res://scenes/ui/start.tscn"

[autoload]

Tick="*res://scenes/tick.tscn"
Globals="*res://scenes/common/globals.tscn"
ButtonSound="*res://scenes/button_sound.tscn"

[display]

window/size/width=1920
window/size/height=1080
window/size/borderless=true
window/size/fullscreen=true
window/stretch/mode="2d"

[global]

displa=false
widt=false
editor=false

[input]

LeftClick={
"deadzone": 0.5,
"events": [ Object(InputEventMouseButton,"resource_local_to_scene":false,"resource_name":"","device":0,"alt":false,"shift":false,"control":false,"meta":false,"command":false,"button_mask":0,"position":Vector2( 0, 0 ),"global_position":Vector2( 0, 0 ),"factor":1.0,"button_index":1,"pressed":false,"doubleclick":false,"script":null)
 ]
}
Escape={
"deadzone": 0.5,
"events": [ Object(InputEventKey,"resource_local_to_scene":false,"resource_name":"","device":0,"alt":false,"shift":false,"control":false,"meta":false,"command":false,"pressed":false,"scancode":16777217,"physical_scancode":0,"unicode":0,"echo":false,"script":null)
, Object(InputEventKey,"resource_local_to_scene":false,"resource_name":"","device":0,"alt":false,"shift":false,"control":false,"meta":false,"command":false,"pressed":false,"scancode":16777241,"physical_scancode":0,"unicode":0,"echo":false,"script":null)
 ]
}

[physics]

common/enable_pause_aware_picking=true

[rendering]

environment/default_environment="res://default_env.tres"
