[gd_scene load_steps=4 format=2]

[ext_resource path="res://scripts/rooms/asteroid.gd" type="Script" id=1]
[ext_resource path="res://assets/shpere.png" type="Texture" id=2]

[sub_resource type="CapsuleShape2D" id=1]
radius = 30.7692
height = 0.0

[node name="RigidBody2D" type="RigidBody2D"]
collision_layer = 0
input_pickable = true
gravity_scale = 0.0
script = ExtResource( 1 )

[node name="Sprite" type="Sprite" parent="."]
position = Vector2( -4.76837e-07, -9.53674e-07 )
scale = Vector2( 1.66, 1.45227 )
texture = ExtResource( 2 )

[node name="CollisionShape2D2" type="CollisionShape2D" parent="."]
light_mask = 0
position = Vector2( 0, 5.45697e-12 )
scale = Vector2( 2.34, 2.46364 )
shape = SubResource( 1 )
