[gd_scene load_steps=4 format=2]

[ext_resource path="res://assets/nitrogen.png" type="Texture" id=1]
[ext_resource path="res://scripts/rooms/bottle.gd" type="Script" id=2]

[sub_resource type="RectangleShape2D" id=1]
extents = Vector2( 46.5, 102 )

[node name="RigidBody2D" type="RigidBody2D" groups=["pickable"]]
input_pickable = true
mass = 9.41
script = ExtResource( 2 )

[node name="CollisionShape2D" type="CollisionShape2D" parent="."]
position = Vector2( 25.5, 60 )
shape = SubResource( 1 )

[node name="Sprite" type="Sprite" parent="."]
position = Vector2( 24.75, 60.5 )
scale = Vector2( 2.20732, 2.44048 )
texture = ExtResource( 1 )
